[ Aug 07, 2017 18:34:21 ] Found
[ Oct 26, 2017 13:46:34 ] Array
(
    [work_position] => Economist
    [work_user_id] => 3
    [work_year_from] => 2009
    [work_month_from] => 1
    [work_company] => 
    [work_location] => 
    [work_desc] => 
    [work_year_to] => 2015
    [work_month_to] => 1
    [work_current] => 0
)

[ Oct 26, 2017 13:47:05 ] Array
(
    [work_position] => Economist
    [work_user_id] => 3
    [work_year_from] => 2009
    [work_month_from] => 1
    [work_company] => 
    [work_location] => 
    [work_desc] => 
    [work_year_to] => 2015
    [work_month_to] => 1
    [work_current] => 0
)

[ Oct 26, 2017 13:47:40 ] Array
(
    [work_position] => Economist
    [work_user_id] => 3
    [work_year_from] => 2009
    [work_month_from] => 1
    [work_company] => 
    [work_location] => 
    [work_desc] => 
    [work_year_to] => 2015
    [work_month_to] => 1
    [work_current] => 0
)

[ Oct 26, 2017 13:54:14 ] Array
(
    [work_position] => Economist
    [work_user_id] => 3
    [work_year_from] => 2009
    [work_month_from] => 1
    [work_company] => 
    [work_location] => 
    [work_desc] => 
    [work_year_to] => 2014
    [work_month_to] => 1
    [work_current] => 0
)

[ Oct 26, 2017 13:54:14 ] Array
(
    [work_position] => cvvvvv
    [work_user_id] => 3
    [work_year_from] => 2017
    [work_month_from] => 1
    [work_company] => 
    [work_location] => 
    [work_desc] => 
    [work_current] => 1
)

